{
	"info": {
		"_postman_id": "30001d82-6302-4e0c-bee0-d51713348570",
		"name": "ACTIVITY",
		"schema": "https://schema.getpostman.com/json/collection/v2.1.0/collection.json"
	},
	"item": [
		{
			"name": "Activty 2 PATCH",
			"request": {
				"method": "PATCH",
				"header": [],
				"body": {
					"mode": "raw",
					"raw": "{\r\n    \"title\": \"Updated Title\",\r\n    \"body\": \"Updated Body\"\r\n}",
					"options": {
						"raw": {
							"language": "json"
						}
					}
				},
				"url": {
					"raw": "https://jsonplaceholder.typicode.com/posts/1",
					"protocol": "https",
					"host": [
						"jsonplaceholder",
						"typicode",
						"com"
					],
					"path": [
						"posts",
						"1"
					]
				}
			},
			"response": []
		},
		{
			"name": "Activity 3 POST /register",
			"request": {
				"method": "POST",
				"header": [],
				"body": {
					"mode": "raw",
					"raw": "{\r\n    \"username\": \"ren\",\r\n    \"password\": \"123\",\r\n    \"fname\": \"ren\",\r\n    \"lname\": \"tio\"\r\n}",
					"options": {
						"raw": {
							"language": "json"
						}
					}
				},
				"url": {
					"raw": "localhost:4001/register",
					"host": [
						"localhost"
					],
					"port": "4001",
					"path": [
						"register"
					]
				}
			},
			"response": []
		},
		{
			"name": "Activity 3 POST /login",
			"request": {
				"method": "POST",
				"header": [],
				"body": {
					"mode": "raw",
					"raw": "{\r\n    \"username\": \"ren\",\r\n    \"password\": \"123\"\r\n}",
					"options": {
						"raw": {
							"language": "json"
						}
					}
				},
				"url": {
					"raw": "localhost:4001/login",
					"host": [
						"localhost"
					],
					"port": "4001",
					"path": [
						"login"
					]
				}
			},
			"response": []
		}
	]
}